{
  "type": "service_account",
  "project_id": "eagle-react",
  "private_key_id": "e07ff57c6391a7fca606d35ee7bb721e19d34c1d",
  "private_key": "-----BEGIN PRIVATE KEY-----\nMIIEvQIBADANBgkqhkiG9w0BAQEFAASCBKcwggSjAgEAAoIBAQDjaNpNTlbM3yZ3\n0p/1IcXSzv42NnDNrnYDEk8S9/cO3QIQADtIfYOJgPcJn1hfT7dUiudasSde8tp0\nJeFMrPMYUPmcn6jttc4hMqtE/AxE7ny8i5zBzATYcS/qmszZzsyhhMfcHlDpB8Vp\nWtR3MPc4ulKYG9ldGZLcqhhStiaOL1RsVj6bx78LrG2zCIk/Cl9Tat6s/L3k6nwM\nzbLyYbNPCCqcRs7jWWYIzutEBMcufWW+kkFLapjgCWQWfMVjcBfgvzGQfDr6PSV1\nkW7EF6NP1jCoaMjhrXuh0AZLpKpLfcZwUQDBy+r4iHANU45ga2WWXw5Tcq0RWKBg\nBqvVN7zlAgMBAAECggEAA4mJyiWlM5iamGCK8ANiq8D5sudgrjWMsy2H7b6a3DAg\nReMLCQY5LPYrLle8X/cod3f8DOAWjnzuj8Hxe2gK4l6LRp40WkY3esxQxHwhk+zo\n8DHa8if1p1XTYS3S1xlG+5HKKtvAQtYStW0EdjopWxUi3CgKvU6WVAWQgH2ocEVR\nFObRNEORrDUYKI3BxzyiBWxjK6Oo7y9mZvQqEmoc1hdc3jdOeZ1zAVri45Hc7V6i\nCC4FwsSLvMsmYcxtz9FQ6H1V/Ga4YjZXRecU9QlZcmfpRIqCsQBlK6GpdVE990KI\nXswVtAYNFHo6VHrV/+bqw93GqERTIaHGMRxqRQbnXQKBgQD+GadctnvTINmMMwOk\nfJM4ulW2fuJ9dQWVtSFRAyR+3D9vWx11aucFao+6y6eLWIcFbt5piNg5U8wpXH78\n/epfMgjSU29Ppixr/QGptFZUd+xnPb79eBowqCnnwRbyWB6RN9VlL7w5f8Wr7GVw\npnLk74EEWO3JouvlA5blRo7VNwKBgQDlHB0AKU8NLCzxqR/7dpJbxdTepKCco9gL\nkj6u74tX20DufXBLoL8q00/0IpdFK2f8dajO31/eu/tW6oGsNVLpZmBd5e68yUK6\nUFeaPVVNTDIxkkv3B8OqzInE/n/V3ArfGe6Mhp8PtoLglFtv9hyZEM7W/SKlw+Ha\nIMRPaVlMwwKBgQC9PgvoP7wetKNxB/lZgrH+mMAHR56VAxditOCYPjfrB0tzOq/I\n6BIgdYmP++bPH+KHSFf6z0ECCQfPciTddJodxdzOD/ehoUgKMQcRBc8Z36rABTt9\n+PnAbS2wfZ0CZmB1lNioIJIVXLSyYz/1UvHU0Q8MVtLZzi3ThQXXweHUpwKBgCjd\n7OZcd/dXi+THUCcgrValYSUdpHCMYTsfKQM3Q1m2iEyCH4e98puG+doIWYdDCNdl\nfWj5OzaVvW1xgxPepx1u332gSAdwtvBY6GdgzVhuYP2qpNY5klNjDKgQ5WiWSXIm\nRADY+oJpActhazX7Znp/HwYGPSnoWN75vUqU9hLVAoGALbDHIf4pJK6cBdzvmWvv\nLrfqrcI2PYH91uF6Kah4MXZqjSq4KaewiWVq+8AY5dpGntES4Z5LwJ3paxScaj1Q\nrilgVXceLZo8l/lh4r40ri6Jd7de0YCTR1QiMBQ3qsfxgAT2nWqZAMNWDinR6qt5\ntXYAw87lkhxvr/zSYpVRkG4=\n-----END PRIVATE KEY-----\n",
  "client_email": "311043243464-compute@developer.gserviceaccount.com",
  "client_id": "107963044304128939773",
  "auth_uri": "https://accounts.google.com/o/oauth2/auth",
  "token_uri": "https://oauth2.googleapis.com/token",
  "auth_provider_x509_cert_url": "https://www.googleapis.com/oauth2/v1/certs",
  "client_x509_cert_url": "https://www.googleapis.com/robot/v1/metadata/x509/311043243464-compute%40developer.gserviceaccount.com"
}